Place,Sex,Name,CyrillicName,BodyweightKg,Squat1Kg,Squat2Kg,Squat3Kg,Best3SquatKg,Squat4Kg,Bench1Kg,Bench2Kg,Bench3Kg,Best3BenchKg,Bench4Kg,Deadlift1Kg,Deadlift2Kg,Deadlift3Kg,Best3DeadliftKg,Deadlift4Kg,TotalKg,WeightClassKg,Event,Equipment,Tested,Division,Age,BirthDate
1,F,Darya Lukoshkina,Дарья Лукошкина,47.15,125,130,137.5,137.5,,75,-80,-80,75,,175,-185,-185,175,,387.5,48,SBD,Raw,No,Open,24,1995-09-07
1,F,Natalya Polyakova,Наталья Полякова,50.4,67.5,75,80,80,,42.5,47.5,-52.5,47.5,,110,117.5,125,125,,252.5,52,SBD,Raw,No,Open,37,1982-07-18
1,F,Veronika Selyanina,Вероника Селянина,59.85,80,85,90,90,,40,45,47.5,47.5,,90,-95,-95,90,,227.5,60,SBD,Raw,No,Teen 16-17,17,2002-03-25
1,F,Ekaterina Dityateva,Екатерина Дитятьева,59.6,75,80,-82.5,80,,45,47.5,50,50,,115,125,-130,125,,255,60,SBD,Raw,No,Open,34,1984-12-15
1,M,Aleksey Malyshev,Алексей Малышев,51.6,110,120,127.5,127.5,,92.5,100,,100,,135,150,155,155,,382.5,52,SBD,Raw,No,Teen 13-15,15,2004-06-30
2,M,Nikita Chervochkin,Никита Червочкин,52,65,-75,80,80,,42.5,-47.5,-47.5,42.5,,120,125,130,130,,252.5,52,SBD,Raw,No,Teen 18-19,18,2001-11-15
3,M,Nikita Salykin,Никита Салыкин,51.4,65,70,77.5,77.5,,45,52.5,57.5,57.5,,90,97.5,107.5,107.5,,242.5,52,SBD,Raw,No,Teen 13-15,14,2005-03-04
4,M,Nikita Krasavtsev,Никита Красавцев,45.3,55,65,-70,65,,32.5,37.5,-40,37.5,,70,80,85,85,,187.5,52,SBD,Raw,No,Teen 13-15,13,2006-06-27
1,M,Nikita Sakovtsev,Никита Саковцев,57.95,105,110,115,115,,70,-75,-75,70,,150,160,165,165,,350,60,SBD,Raw,No,Teen 16-17,16,2003-06-18
2,M,Dmitriy Cherepanov,Дмитрий Черепанов,55.8,85,90,-97.5,90,,55,60,-65,60,,110,115,117.5,117.5,,267.5,56,SBD,Raw,No,Teen 13-15,14,2005-06-02
3,M,Pavel Pashkov,Павел Пашков,59.1,80,90,95,95,,60,65,-70,65,,90,100,,100,,260,60,SBD,Raw,No,Teen 13-15,14,2005-03-23
4,M,Denis Naumov,Денис Наумов,57,35,40,45,45,,27.5,32.5,35,35,,50,55,60,60,,140,60,SBD,Raw,No,Teen 13-15,13,2005-12-02
1,M,Oleg Dvoynikov,Олег Двойников,59.8,110,120,125,125,,80,85,87.5,87.5,,150,160,,160,,372.5,60,SBD,Raw,No,Masters 55-59,59,1960-10-08
1,M,Danila Lopatin,Данила Лопатин,65.68,125,130,137.5,137.5,,75,-80,-80,75,,175,-185,-185,175,,387.5,67.5,SBD,Raw,No,Teen 16-17,16,2003-09-06
2,M,Nikita Shevchenko,Никита Шевченко,64,105,112.5,-117.5,112.5,,60,65,-72.5,65,,145,152.5,160,160,,337.5,67.5,SBD,Raw,No,Teen 13-15,15,2004-03-19
3,M,Kirill Gladyshev,Кирилл Гладышев,64,90,100,105,105,,60,65,-67.5,65,,130,140,145,145,,315,67.5,SBD,Raw,No,Teen 16-17,17,2002-09-15
4,M,Maksim Ternavskiy,Максим Тернавский,66.5,-95,-100,100,100,,55,60,-65,60,,135,145,-150,145,,305,67.5,SBD,Raw,No,Teen 16-17,17,2002-08-18
5,M,Kirill Gyunter,Кирилл Гюнтер,62.3,65,-75,85,85,,-45,50,-55,50,,130,145,-150,145,,280,67.5,SBD,Raw,No,Teen 13-15,15,2003-11-21
1,M,Egor Politsinskiy,Егор Полицинский,68,140,150,-152.5,150,,90,95,97.5,97.5,,185,190,-200,190,,437.5,75,SBD,Raw,No,Teen 18-19,19,2000-07-21
2,M,Andrey Musinskiy,Андрей Мусинский,73.2,140,150,-155,150,,85,90,95,95,,165,-175,175,175,,420,75,SBD,Raw,No,Teen 18-19,18,2001-03-28
3,M,Ivan Kuznetsov,Иван Кузнецов,73.75,115,120,-125,120,,80,85,-87.5,85,,150,160,165,165,,370,75,SBD,Raw,No,Teen 16-17,16,2003-09-15
4,M,Aleksey Sablin,Алексей Саблин,73.4,105,115,-120,115,,80,85,90,90,,125,135,145,145,,350,75,SBD,Raw,No,Teen 13-15,14,2005-05-28
5,M,Kirill Uzbekov,Кирилл Узбеков,68.1,85,95,100,100,,60,-65,65,65,,120,130,137.5,137.5,,302.5,75,SBD,Raw,No,Teen 13-15,14,2005-06-25
1,M,Sergey Pavlov,Сергей Павлов,79.85,130,140,-150,140,,85,90,-95,90,,180,190,202.5,202.5,,432.5,82.5,SBD,Raw,No,Teen 18-19,18,2001-10-27
2,M,Artem Golikov,Артем Голиков,80.25,120,125,130,130,,80,82.5,85,85,,140,150,-160,150,,365,82.5,SBD,Raw,No,Teen 16-17,16,2002-11-28
3,M,Egor Krasavtsev,Егор Красавцев,78.9,115,125,135,135,,55,-67.5,-67.5,55,,145,155,-160,155,,345,82.5,SBD,Raw,No,Teen 16-17,17,2002-07-23
4,M,Aleksey Vedrov,Алексей Ведров,78.85,100,110,-115,110,,82.5,87.5,90,90,,120,130,140,140,,340,82.5,SBD,Raw,No,Teen 18-19,18,2001-11-06
1,M,Artyom Shasherin,Артём Шашерин,80.6,180,190,200,200,,125,-130,-130,125,,210,220,230,230,,555,82.5,SBD,Raw,No,Open,35,1984-11-08
1,M,Roman Malyshev,Роман Малышев,88.5,210,220,-230,220,,175,-185,,175,,250,270,-275,270,,665,90,SBD,Raw,No,Open,41,1978-08-20
2,M,Vyacheslav Bovinov,Вячеслав Бовинов,85.65,160,-170,170,170,,125,-130,130,130,,180,195,200,200,,500,90,SBD,Raw,No,Open,39,1980-06-16
1,M,Egor Zaglubotskiy,Егор Заглубоцкий,94.25,100,105,110,110,,57.5,60,-65,60,,135,142.5,150,150,,320,100,SBD,Raw,No,Teen 13-15,14,2005-04-19
1,M,Dmitriy Pavlov,Дмитрий Павлов,99.9,230,250,270,270,,190,195,,195,,320,-340,-340,320,,785,100,SBD,Raw,No,Open,23,1996-06-11
1,M,Sergey Zelentsov,Сергей Зеленцов,106.55,220,230,240,240,,140,-150,,140,,270,285,300,300,,680,110,SBD,Raw,No,Open,48,1971-05-16
1,M,Sergey Nikitchuk,Сергей Никитчук,125,240,250,270,270,,160,170,-180,170,,300,-315,-315,300,,740,125,SBD,Raw,No,Open,39,1979-11-18
1,F,Yana Protsel,Яна Процел,55.9,,,,,,25,-30,30,30,,85,-92.5,-95,85,,115,56,BD,Raw,No,Teen 16-17,17,2002-07-19
1,F,Veronika Selyanina,Вероника Селянина,59.85,,,,,,40,45,47.5,47.5,,90,-95,-95,90,,137.5,60,BD,Raw,No,Teen 16-17,17,2002-03-25
1,M,Denis Naumov,Денис Наумов,57,,,,,,27.5,32.5,35,35,,50,55,60,60,,95,60,BD,Raw,No,Teen 13-15,13,2005-12-02
1,M,Ilya Konev,Илья Конев,75,,,,,,50,60,-65,60,,150,160,-170,160,,220,75,BD,Raw,No,Teen 16-17,17,2002-08-15
1,M,Vyacheslav Grigorev,Вячеслав Григорьев,81.1,,,,,,70,75,-77.5,75,,130,137.5,-147.5,137.5,,212.5,82.5,BD,Raw,No,Teen 16-17,17,2002-04-30
1,M,Egor Zaglubotskiy,Егор Заглубоцкий,94.25,,,,,,57.5,60,-65,60,,135,142.5,150,150,,210,100,BD,Raw,No,Teen 13-15,14,2005-04-19
1,M,Dmitriy Pavlov,Дмитрий Павлов,99.9,,,,,,190,195,,195,,320,-340,-340,320,,515,100,BD,Raw,No,Open,23,1996-06-11
2,M,Yuriy Murin,Юрий Мурин,98.9,,,,,,110,120,130,130,,200,215,-225,215,,345,100,BD,Raw,No,Open,29,1989-12-06
1,M,Vlad Golikov,Влад Голиков,107.75,,,,,,80,-90,-90,80,,130,150,170,170,,250,110,BD,Raw,No,Teen 13-15,15,2004-03-02
1,M,Kirill Fadin,Кирилл Фадин,105.8,,,,,,115,-122.5,,115,,160,,,160,,275,110,BD,Raw,No,Teen 16-17,16,2003-01-28
1,F,Veronika Selyanina,Вероника Селянина,59.85,,,,,,40,45,47.5,47.5,,,,,,,47.5,60,B,Raw,No,Teen 16-17,17,2002-03-25
1,F,Polina Verkhovinskaya,Полина Верховинская,67.5,,,,,,42.5,47.5,50,50,,,,,,,50,67.5,B,Raw,No,Teen 13-15,14,2005-06-12
1,F,Valeriya Bulatova,Валерия Булатова,77.5,,,,,,45,50,-52.5,50,,,,,,,50,82.5,B,Raw,No,Teen 13-15,13,2006-07-31
1,M,Ivan Uglovskiy,Иван Угловский,43.8,,,,,,50,52.5,55,55,,,,,,,55,52,B,Raw,No,Teen 13-15,14,2005-07-20
2,M,Nikita Malykh,Никита Малых,46.3,,,,,,40,45,-50,45,,,,,,,45,52,B,Raw,No,Teen 13-15,14,2005-08-17
1,M,Ilya Koposov,Илья Копосов,57,,,,,,80,85,87.5,87.5,,,,,,,87.5,60,B,Raw,No,Teen 16-17,17,2002-05-25
1,M,Oleg Dvoynikov,Олег Двойников,59.8,,,,,,80,85,87.5,87.5,,,,,,,87.5,60,B,Raw,No,Masters 55-59,59,1960-04-05
1,M,Vardan Ayvazyan,Вардан Айвазян,67.5,,,,,,87.5,90,-97.5,90,,,,,,,90,67.5,B,Raw,No,Teen 16-17,16,2003-08-29
2,M,Kirill Vyatkin,Кирилл Вяткин,67.4,,,,,,80,85,-87.5,85,,,,,,,85,67.5,B,Raw,No,Teen 13-15,13,2006-01-01
1,M,Valentin Markov,Валентин Марков,62.9,,,,,,100,105,110,110,,,,,,,110,67.5,B,Raw,No,Open,25,1994-04-25
2,M,Aleksandr Kazakov,Александр Казаков,67.5,,,,,,90,100,-105,100,,,,,,,100,67.5,B,Raw,No,Open,26,1993-09-21
1,M,Maksim Burakov,Максим Бураков,69.8,,,,,,75,80,-85,80,,,,,,,80,75,B,Raw,No,Teen 13-15,14,2005-04-15
1,M,Ivan Nechay,Иван Нечай,82.5,,,,,,130,135,-140,135,,,,,,,135,82.5,B,Raw,No,Open,25,1994-01-27
2,M,Aleksey Orlov,Алексей Орлов,81.45,,,,,,120,125,-135,125,,,,,,,125,82.5,B,Raw,No,Open,31,1988-09-20
3,M,Oleg Tonkovskiy,Олег Тонковский,81.9,,,,,,112.5,-117.5,117.5,117.5,,,,,,,117.5,82.5,B,Raw,No,Open,23,1996-03-05
4,M,Sergey Suetin,Сергей Суэтин,82,,,,,,110,-115,-115,110,,,,,,,110,82.5,B,Raw,No,Open,25,1994-04-10
1,M,Roman Malyshev,Роман Малышев,88.5,,,,,,175,-185,,175,,,,,,,175,90,B,Raw,No,Open,41,1978-08-20
2,M,Nikita Piryakov,Никита Пиряков,86.1,,,,,,137.5,142.5,-152.5,142.5,,,,,,,142.5,90,B,Raw,No,Open,23,1996-03-05
1,M,Aleksey Nalivayko,Алексей Наливайко,88.55,,,,,,150,152.5,-160,152.5,,,,,,,152.5,90,B,Raw,No,Masters 40-44,41,1978-04-05
1,M,Sergey Sorokin,Сергей Сорокин,89,,,,,,125,130,132.5,132.5,,,,,,,132.5,90,B,Raw,No,Masters 50-54,51,1968-01-10
1,M,Dmitriy Pavlov,Дмитрий Павлов,99.9,,,,,,190,195,,195,,,,,,,195,100,B,Raw,No,Open,23,1996-06-11
2,M,Andrey Chebykin,Андрей Чебыкин,100,,,,,,175,180,185,185,,,,,,,185,100,B,Raw,No,Open,43,1976-03-26
1,M,Andrey Shevelev,Андрей Шевелев,89,,,,,,145,150,157.5,157.5,,,,,,,157.5,90,B,Raw,No,Masters 40-44,41,1978-04-05
1,M,Kirill Fadin,Кирилл Фадин,105.8,,,,,,115,-122.5,,115,,,,,,,115,110,B,Raw,No,Teen 16-17,16,2003-01-28
2,M,Vlad Golikov,Влад Голиков,107.75,,,,,,80,-90,-90,80,,,,,,,80,110,B,Raw,No,Teen 13-15,15,2004-03-02
1,M,Aleksey Maksimov,Алексей Максимов,110,,,,,,210,215,220,220,,,,,,,220,110,B,Raw,No,Open,31,1988-04-17
2,M,Artem Markov,Артем Марков,103,,,,,,210,-217.5,-217.5,210,,,,,,,210,110,B,Raw,No,Open,33,1986-08-03
3,M,Nikita Chetverikov,Никита Четвериков,108.9,,,,,,155,-162.5,-162.5,155,,,,,,,155,110,B,Raw,No,Open,23,1996-07-11
1,M,Sergey Nayman,Сергей Найман,110,,,,,,150,160,,160,,,,,,,160,110,B,Raw,No,Masters 40-44,44,1975-04-05
1,M,Igor Brekhovskikh,Игорь Бреховских,110,,,,,,127.5,132.5,135,135,,,,,,,135,110,B,Raw,No,Masters 60-64,61,1958-04-05
1,M,Sergey Nikitchuk,Сергей Никитчук,125,,,,,,160,170,-180,170,,,,,,,170,125,B,Raw,No,Open,39,1979-11-18
1,M,Eduard Surov,Эдуард Суров,117.5,,,,,,172.5,187.5,195,195,,,,,,,195,125,B,Raw,No,Masters 40-44,43,1976-09-30
1,M,Andrey Kuzmin,Андрей Кузьмин,115.85,,,,,,130,-135,135,135,,,,,,,135,125,B,Raw,No,Masters 50-54,53,1966-04-05
1,M,Andrey Evstifeev,Андрей Евстифеев,,,,,,,170,182,190,190,,,,,,,190,140+,B,Raw,No,Masters 40-44,44,1975-04-05
1,F,Yana Protsel,Яна Процел,55.9,,,,,,,,,,,85,-92.5,-95,85,,85,56,D,Raw,No,Teen 16-17,17,2002-07-19
1,F,Veronika Selyanina,Вероника Селянина,59.85,,,,,,,,,,,90,-95,-95,90,,90,60,D,Raw,No,Teen 16-17,17,2002-03-25
1,F,Natalya Usova #1,Наталья Усова,68.2,,,,,,,,,,,65,72.5,77.5,77.5,,77.5,75,D,Raw,No,Masters 40-44,40,1979-08-03
1,M,Dmitriy Cherepanov,Дмитрий Черепанов,55.8,,,,,,,,,,,110,115,117.5,117.5,,117.5,56,D,Raw,No,Teen 13-15,14,2005-06-02
1,M,Oleg Dvoynikov,Олег Двойников,59.8,,,,,,,,,,,150,160,,160,,160,60,D,Raw,No,Masters 55-59,59,1960-10-08
1,M,Danila Lopatin,Данила Лопатин,65.68,,,,,,,,,,,175,-185,-185,175,,175,67.5,D,Raw,No,Teen 16-17,16,2003-09-06
1,M,Andrey Musinskiy,Андрей Мусинский,73.2,,,,,,,,,,,165,-175,175,175,,175,75,D,Raw,No,Teen 18-19,18,2001-03-28
2,M,Ilya Konev,Илья Конев,75.1,,,,,,,,,,,150,160,-170,160,,160,82.5,D,Raw,No,Teen 16-17,17,2002-08-15
1,M,Dmitriy Nalyotov,Дмитрий Налётов,82.5,,,,,,,,,,,170,177.5,182.5,182.5,,182.5,82.5,D,Raw,No,Open,24,1995-10-13
1,M,Dmitriy Pavlov,Дмитрий Павлов,99.9,,,,,,,,,,,320,-340,-340,320,,320,100,D,Raw,No,Open,23,1996-06-11
2,M,Aleksey Yakushevich,Алексей Якушевич,97.9,,,,,,,,,,,250,272.5,290,290,,290,100,D,Raw,No,Open,28,1991-07-02
3,M,Yuriy Murin,Юрий Мурин,98.9,,,,,,,,,,,200,215,-225,215,,215,100,D,Raw,No,Open,29,1989-12-06
1,M,Vladislav Golikov,Владислав Голиков,107.75,,,,,,,,,,,130,150,170,170,,170,110,D,Raw,No,Teen 13-15,15,2004-03-02
2,M,Kirill Fadin,Кирилл Фадин,105.8,,,,,,,,,,,160,,,160,,160,110,D,Raw,No,Teen 16-17,16,2003-01-28
1,M,Sergey Nikitchuk,Сергей Никитчук,125,,,,,,,,,,,300,-315,-315,300,,300,125,D,Raw,No,Open,39,1979-11-18
