Place,Sex,Name,CyrillicName,BodyweightKg,Squat1Kg,Squat2Kg,Squat3Kg,Best3SquatKg,Squat4Kg,Bench1Kg,Bench2Kg,Bench3Kg,Best3BenchKg,Bench4Kg,Deadlift1Kg,Deadlift2Kg,Deadlift3Kg,Best3DeadliftKg,Deadlift4Kg,TotalKg,WeightClassKg,Event,Equipment,Tested,Division,Age,BirthDate
1,F,Darya Lukoshkina,Дарья Лукошкина,50.5,80,85,-87.5,85,,40,42.5,-45,42.5,,90,97.5,105,105,,232.5,52,SBD,Raw,Yes,Open,24,1995-07-09
1,F,Ekaterina Dityateva,Екатерина Дитятьева,58.9,75,80,-85,80,,47.5,50,-52.5,50,,115,127.5,132.5,132.5,,262.5,60,SBD,Raw,Yes,Open,35,1984-12-15
1,F,Veronika Selyanina,Вероника Селянина,61,80,-90,90,90,,45,50,-52.5,50,,100,-110,-115,100,,240,67.5,SBD,Raw,Yes,Teen 16-17,17,2002-03-25
1,M,Aleksey Malyshev,Алексей Малышев,55.6,120,130,140,140,,90,100,-105,100,,150,160,170,170,,410,56,SBD,Raw,Yes,Teen 13-15,15,2004-06-30
1,M,Oleg Dvoynikov,Олег Двойников,59.8,110,120,125,125,,82.5,87.5,90,90,,150,160,165,165,,380,60,SBD,Raw,Yes,Masters 55-59,59,1960-10-08
1,M,Danila Lopatin,Данила Лопатин,66.5,-120,130,-140,130,,75,80,-82.5,80,,175,-180,-180,175,,385,67.5,SBD,Raw,Yes,Teen 16-17,16,2003-09-06
1,M,Sergey Pavlov,Сергей Павлов,80.6,130,140,150,150,,85,-95,-95,85,,190,-205,-210,190,,425,82.5,SBD,Raw,Yes,Teen 18-19,18,2001-10-27
1,M,Nikolay Novozhilov,Николай Новожилов,92.5,160,165,170,170,,130,-135,-135,130,,180,200,210,210,,510,100,SBD,Raw,Yes,Open,37,1982-05-19
2,M,Yuriy Murin,Юрий Мурин,99,150,160,170,170,,115,125,-130,125,,185,195,-210,195,,490,100,SBD,Raw,Yes,Open,30,1989-12-06
1,F,Natalya Polyakova,Наталья Полякова,48,70,75,-80,75,,45,47.5,-50,47.5,,115,125,132.5,132.5,,255,48,SBD,Raw,No,Open,37,1982-07-18
1,F,Vladislava Kuritsina,Владислава Курицина,51.9,80,-85,-85,80,,30,35,-40,35,,85,90,95,95,,210,52,SBD,Raw,No,Teen 18-19,18,2001-06-14
1,M,Nikita Salykin,Никита Салыкин,51.7,65,72.5,80,80,,55,60,-62.5,60,,100,-110,-110,100,,240,52,SBD,Raw,No,Teen 16-17,16,2003-08-24
2,M,Nikita Malykh,Никита Малых,47.5,-65,70,-75,70,,50,55,-60,55,,85,95,105,105,,230,52,SBD,Raw,No,Teen 13-15,14,2005-08-17
3,M,Nikita Krasavtsev,Никита Красавцев,46,-60,65,70,70,,35,40,-42.5,40,,82.5,90,-95,90,,200,52,SBD,Raw,No,Teen 13-15,13,2006-06-27
1,M,Egor Shirshov,Егор Ширшов,55.6,65,72.5,-77.5,72.5,,50,55,-57.5,55,,100,110,120,120,,247.5,56,SBD,Raw,No,Teen 13-15,15,2004-08-16
2,M,Kirill Duryagin,Кирилл Дурягин,54,52.5,57.5,62.5,62.5,,45,50,52.5,52.5,,82.5,90,-100,90,,205,56,SBD,Raw,No,Teen 13-15,14,2005-08-13
1,M,Dmitriy Cherepanov,Дмитрий Черепанов,58.8,95,100,105,105,,60,65,-70,65,,100,105,115,115,,285,60,SBD,Raw,No,Teen 13-15,14,2005-06-02
2,M,Ivan Lopatin,Иван Лопатин,57.5,70,80,85,85,,52.5,-57.5,57.5,57.5,,110,125,135,135,,277.5,60,SBD,Raw,No,Teen 16-17,17,2002-08-24
1,M,Nikita Shevchenko,Никита Шевченко,65,115,120,-122.5,120,,65,70,72.5,72.5,,-140,145,150,150,,342.5,67.5,SBD,Raw,No,Teen 16-17,17,2002-07-01
2,M,Kirill Kharitonov,Кирилл Харитонов,65.3,110,115,117.5,117.5,,60,65,-67.5,65,,140,-147.5,,140,,322.5,67.5,SBD,Raw,No,Teen 18-19,18,2002-01-10
3,M,Maksim Abakumov,Максим Абакумов,61.7,100,-105,-105,100,,60,70,72.5,72.5,,135,140,-145,140,,312.5,67.5,SBD,Raw,No,Teen 16-17,17,2002-08-27
4,M,Kirill Gyunter,Кирилл Гюнтер,63.1,75,-82.5,85,85,,50,55,-57.5,55,,135,-145,-145,135,,275,67.5,SBD,Raw,No,Teen 16-17,16,2003-11-21
1,M,Vitaliy Romanov,Виталий Романов,72.9,100,115,122.5,122.5,,-75,77.5,-80,77.5,,155,165,170,170,,370,75,SBD,Raw,No,Teen 16-17,16,2003-10-22
2,M,Anton Ushakov,Антон Ушаков,70.8,-135,135,140,140,,80,85,87.5,87.5,,135,-142.5,-142.5,135,,362.5,75,SBD,Raw,No,Teen 16-17,17,2002-07-24
3,M,Kirill Uzbekov,Кирилл Узбеков,69.5,85,95,102.5,102.5,,60,-65,-65,60,,125,-130,-130,125,,287.5,75,SBD,Raw,No,Teen 13-15,14,2005-06-25
1,M,Egor Krasavtsev,Егор Красавцев,82.2,145,-155,155,155,,65,70,77.5,77.5,,155,165,175,175,,407.5,82.5,SBD,Raw,No,Teen 16-17,17,2002-07-23
2,M,Vitaliy Trunyakov,Виталий Труняков,75.9,90,100,-110,100,,-60,-62.5,65,65,,115,122.5,130,130,,295,82.5,SBD,Raw,No,Teen 13-15,15,2005-01-04
DQ,M,Artyom Golikov,Артём Голиков,80.7,120,130,-132.5,130,,80,-85,-85,80,,-145,-145,-145,,,,82.5,SBD,Raw,No,Teen 16-17,17,2002-11-28
1,M,Konstantin Lazarev,Константин Лазарев,84.5,80,90,100,100,,55,62.5,-67.5,62.5,,-100,110,120,120,,282.5,90,SBD,Raw,No,Teen 13-15,15,2004-11-09
1,M,Egor Zaglubotskiy,Егор Заглубоцкий,96.2,100,105,-112.5,105,,-55,60,-62.5,60,,145,-150,,145,,310,100,SBD,Raw,No,Teen 13-15,14,2005-04-19
1,M,Roman Malyshev,Роман Малышев,92.3,200,215,225,225,,165,175,,175,,240,257.5,-265,257.5,,657.5,100,SBD,Raw,No,Open,41,1978-08-20
2,M,Sergey Moiseev,Сергей Моисеев,99.5,215,225,230,230,,150,-155,-155,150,,250,-260,,250,,630,100,SBD,Raw,No,Open,42,1977-08-24
1,M,Artyom Tropnikov,Артём Тропников,109.4,230,245,-260,245,,150,-160,-160,150,,305,317.5,332.5,332.5,,727.5,110,SBD,Raw,No,Open,27,1992-03-01
2,M,Sergey Zelentsov,Сергей Зеленцов,103.1,220,-230,,220,,130,-140,,130,,270,285,300,300,,650,110,SBD,Raw,No,Open,49,1970-05-16
1,M,Sergey Nikitchuk,Сергей Никитчук,120.9,230,250,-270,250,,155,165,170,170,,290,300,-312.5,300,,720,125,SBD,Raw,No,Open,40,1979-11-18
1,M,Andrey Stepichev,Андрей Степичев,80.8,145,160,-175,160,,90,97.5,105,105,,165,180,-195,180,,445,82.5,SBD,Wraps,Yes,Open,31,1988-08-14
1,M,Oleg Dvoynikov,Олег Двойников,59.8,,,,,,82.5,87.5,90,90,,150,160,165,165,,255,60,BD,Raw,Yes,Masters 55-59,59,1960-10-08
1,M,Yuriy Murin,Юрий Мурин,99,,,,,,115,125,-130,125,,185,195,-210,195,,320,100,BD,Raw,Yes,Open,30,1989-12-06
1,M,Yan Tokmakov,Ян Токмаков,52,,,,,,-40,42.5,-47.5,42.5,,-100,107.5,110,110,,152.5,52,BD,Raw,No,Teen 16-17,17,2002-10-14
1,M,Dmitriy Ivanov #35,Дмитрий Иванов,64,,,,,,80,-82.5,-82.5,80,,155,160,-170,160,,240,67.5,BD,Raw,No,Teen 18-19,18,2002-01-02
1,M,Ilya Konev,Илья Конев,71,,,,,,55,60,-62.5,60,,150,162.5,170,170,,230,75,BD,Raw,No,Teen 16-17,17,2002-08-15
2,M,Aleksandr Molokov,Александр Молоков,73,,,,,,-70,75,-80,75,,145,150,155,155,,230,75,BD,Raw,No,Teen 18-19,18,2002-01-01
3,M,Sergey Kulizhnikov,Сергей Кулижников,69,,,,,,85,-90,-90,85,,130,135,140,140,,225,75,BD,Raw,No,Teen 16-17,17,2002-08-13
1,M,Nikita Sopilov,Никита Сопилов,82.1,,,,,,85,92.5,-95,92.5,,170,172.5,-182.5,172.5,,265,82.5,BD,Raw,No,Teen 13-15,15,2004-10-07
2,M,Vladislav Grigorev,Владислав Григорьев,80,,,,,,-80,80,,80,,-145,150,157.5,157.5,,237.5,82.5,BD,Raw,No,Teen 16-17,17,2003-01-03
1,M,Matvey Terletskiy,Матвей Терлецкий,106.1,,,,,,195,202.5,-207.5,202.5,,270,280,-290,280,,482.5,110,BD,Raw,No,Open,27,1992-04-22
2,M,Artyom Tropnikov,Артём Тропников,109.4,,,,,,150,-160,-160,150,,305,317.5,332.5,332.5,,482.5,110,BD,Raw,No,Open,27,1992-03-01
3,M,Aleksey Neustroev,Алексей Неустроев,106.6,,,,,,145,-150,150,150,,230,250,270,270,,420,110,BD,Raw,No,Open,24,1995-11-25
1,M,Sergey Nikitchuk,Сергей Никитчук,120.9,,,,,,155,165,170,170,,290,300,-312.5,300,,470,125,BD,Raw,No,Open,40,1979-11-18
1,F,Svetlana Kokovina,Светлана Коковина,51.8,,,,,,45,-47.5,-47.5,45,,,,,,,45,52,B,Raw,Yes,Teen 18-19,19,2000-03-22
1,M,Ilya Koposov,Илья Копосов,55.8,,,,,,82.5,-90,-90,82.5,,,,,,,82.5,56,B,Raw,Yes,Teen 16-17,16,2003-07-29
1,M,Yuriy Tolstikov,Юрий Толстиков,73.2,,,,,,-112.5,112.5,117.5,117.5,,,,,,,117.5,75,B,Raw,Yes,Juniors 20-23,20,1999-12-06
2,M,Evgeniy Politsinskiy,Евгений Полицинский,74.6,,,,,,112.5,117.5,-120,117.5,,,,,,,117.5,75,B,Raw,Yes,Juniors 20-23,23,1996-08-14
1,M,Aleksey Tretyakov,Алексей Третьяков,81.8,,,,,,150,155,160,160,,,,,,,160,82.5,B,Raw,Yes,Open,38,1981-03-09
1,M,Andrey Shevelyov,Андрей Шевелёв,88.1,,,,,,147.5,-152.5,-152.5,147.5,,,,,,,147.5,90,B,Raw,Yes,Open,41,1978-04-05
2,M,Igor Zubkov,Игорь Зубков,87.2,,,,,,125,-132.5,132.5,132.5,,,,,,,132.5,90,B,Raw,Yes,Open,25,1994-06-21
3,M,Vyacheslav Bovinov,Вячеслав Бовинов,87.5,,,,,,-127.5,127.5,130,130,,,,,,,130,90,B,Raw,Yes,Open,39,1980-06-16
1,M,Andrey Shevelyov,Андрей Шевелёв,88.1,,,,,,147.5,-152.5,-152.5,147.5,,,,,,,147.5,90,B,Raw,Yes,Masters 40-44,41,1978-04-05
1,M,Sergey Shamov,Сергей Шамов,98.9,,,,,,165,172.5,177.5,177.5,,,,,,,177.5,100,B,Raw,Yes,Open,46,1973-08-21
2,M,Yuriy Murin,Юрий Мурин,99,,,,,,125,,,125,,,,,,,125,100,B,Raw,Yes,Open,30,1989-12-06
1,M,Sergey Shamov,Сергей Шамов,98.9,,,,,,165,172.5,177.5,177.5,,,,,,,177.5,100,B,Raw,Yes,Masters 45-49,46,1973-08-21
1,M,Igor Brekhovskikh,Игорь Бреховских,99.8,,,,,,140,142.5,145,145,,,,,,,145,100,B,Raw,Yes,Masters 65-69,66,1954-02-20
1,M,Aleksey Maksimov,Алексей Максимов,104,,,,,,195,200,205,205,,,,,,,205,110,B,Raw,Yes,Open,31,1988-04-12
1,M,Nikita Salykin,Никита Салыкин,51.7,,,,,,55,60,-62.5,60,,,,,,,60,52,B,Raw,No,Teen 16-17,16,2003-08-24
2,M,Ivan Uglovskiy,Иван Угловский,52,,,,,,57.5,60,-62.5,60,,,,,,,60,52,B,Raw,No,Teen 13-15,14,2005-07-20
3,M,Kirill Mitenev,Кирилл Митенев,43.7,,,,,,50,55,-57.5,55,,,,,,,55,52,B,Raw,No,Youth,12,2008-02-05
4,M,Nikita Malykh,Никита Малых,47.5,,,,,,50,55,-60,55,,,,,,,55,52,B,Raw,No,Teen 13-15,14,2005-08-17
1,M,Roman Kashin,Роман Кашин,60,,,,,,-100,-100,100,100,,,,,,,100,60,B,Raw,No,Teen 16-17,16,2003-07-10
2,M,Vladislav Postnikov,Владислав Постников,58,,,,,,60,70,75,75,,,,,,,75,60,B,Raw,No,Teen 16-17,16,2003-08-07
1,M,Azer Bayramov,Азер Байрамов,59.6,,,,,,75,80,-85,80,,,,,,,80,60,B,Raw,No,Open,22,1998-02-04
1,M,Igor Shilovskiy,Игорь Шиловский,64.6,,,,,,75,80,-82.5,80,,,,,,,80,67.5,B,Raw,No,Teen 13-15,14,2005-08-18
2,M,Sergey Bazarev,Сергей Базарев,62,,,,,,-70,-70,70,70,,,,,,,70,67.5,B,Raw,No,Teen 16-17,17,2002-07-11
1,M,Valentin Markov,Валентин Марков,63,,,,,,105,-110,-110,105,,,,,,,105,67.5,B,Raw,No,Open,30,1989-03-25
1,M,Kirill Vyatkin,Кирилл Вяткин,73.8,,,,,,90,-100,-100,90,,,,,,,90,75,B,Raw,No,Teen 16-17,16,2004-01-01
2,M,Gennadiy Shorin,Геннадий Шорин,70.5,,,,,,80,-90,-90,80,,,,,,,80,75,B,Raw,No,Teen 16-17,17,2003-02-05
3,M,Vitaliy Romanov,Виталий Романов,72.9,,,,,,-75,77.5,-80,77.5,,,,,,,77.5,75,B,Raw,No,Teen 16-17,16,2003-10-22
4,M,Pavel Maklakov,Павел Маклаков,73.5,,,,,,70,75,77.5,77.5,,,,,,,77.5,75,B,Raw,No,Teen 13-15,14,2005-09-26
1,M,Maksim Burakov,Максим Бураков,75.4,,,,,,80,87.5,-90,87.5,,,,,,,87.5,82.5,B,Raw,No,Teen 13-15,15,2004-04-15
2,M,Vladislav Grigorev,Владислав Григорьев,80,,,,,,-80,80,,80,,,,,,,80,82.5,B,Raw,No,Teen 16-17,17,2003-01-03
1,M,Vyacheslav Vyatkin,Вячеслав Вяткин,80.2,,,,,,160,-170,172.5,172.5,,,,,,,172.5,82.5,B,Raw,No,Open,31,1988-05-20
2,M,Maksim Mashutinskiy,Максим Машутинский,82.4,,,,,,135,142.5,-147.5,142.5,,,,,,,142.5,82.5,B,Raw,No,Open,37,1982-12-11
1,M,Oleg Plyusnin,Олег Плюснин,82.5,,,,,,135,140,-142.5,140,,,,,,,140,82.5,B,Raw,No,Masters 55-59,56,1963-03-22
DQ,M,Aleksey Nalivayko,Алексей Наливайко,89.9,,,,,,-165,-165,,,,,,,,,,90,B,Raw,No,Masters 40-44,43,1976-10-24
1,M,Andrey Chebykin,Андрей Чебыкин,99.6,,,,,,165,170,175,175,,,,,,,175,100,B,Raw,No,Open,43,1976-03-26
1,M,Andrey Chebykin,Андрей Чебыкин,99.6,,,,,,165,170,175,175,,,,,,,175,100,B,Raw,No,Masters 40-44,43,1976-03-26
2,M,Sergey Moiseev,Сергей Моисеев,99.5,,,,,,150,-155,-155,150,,,,,,,150,100,B,Raw,No,Masters 40-44,42,1977-08-24
1,M,Aleksandr Shevkun,Александр Шевкун,96,,,,,,150,155,-160,155,,,,,,,155,100,B,Raw,No,Masters 45-49,48,1971-05-21
1,M,Artyom Markov,Артём Марков,104.5,,,,,,200,205,-210,205,,,,,,,205,110,B,Raw,No,Open,33,1986-08-03
2,M,Matvey Terletskiy,Матвей Терлецкий,106.1,,,,,,195,202.5,-207.5,202.5,,,,,,,202.5,110,B,Raw,No,Open,27,1992-04-22
1,M,Nikita Chetverikov,Никита Четвериков,111.7,,,,,,170,-175,-175,170,,,,,,,170,125,B,Raw,No,Juniors 20-23,22,1997-11-03
1,M,Nikita Gubenskiy,Никита Губенский,114.2,,,,,,220,225,-230,225,,,,,,,225,125,B,Raw,No,Open,24,1995-04-06
2,M,Sergey Nikitchuk,Сергей Никитчук,120.9,,,,,,155,165,170,170,,,,,,,170,125,B,Raw,No,Open,40,1979-11-18
1,F,Ekaterina Dityateva,Екатерина Дитятьева,58.9,,,,,,,,,,,115,127.5,132.5,132.5,,132.5,60,D,Raw,Yes,Open,35,1984-12-15
1,F,Veronika Selyanina,Вероника Селянина,61,,,,,,,,,,,100,-110,-115,100,,100,67.5,D,Raw,Yes,Teen 16-17,17,2002-03-25
1,M,Nikita Sakovtsev,Никита Саковцев,58.9,,,,,,,,,,,150,-165,165,165,,165,60,D,Raw,Yes,Teen 16-17,16,2003-06-18
1,M,Oleg Dvoynikov,Олег Двойников,59.8,,,,,,,,,,,150,160,165,165,,165,60,D,Raw,Yes,Masters 55-59,59,1960-10-08
1,M,Danila Lopatin,Данила Лопатин,66.5,,,,,,,,,,,175,-180,-180,175,,175,67.5,D,Raw,Yes,Teen 16-17,16,2003-09-06
1,M,Egor Politsinskiy,Егор Полицинский,69,,,,,,,,,,,180,185,187.5,187.5,,187.5,75,D,Raw,Yes,Teen 18-19,19,2000-07-21
1,M,Sergey Pavlov,Сергей Павлов,80.6,,,,,,,,,,,190,-205,-210,190,,190,82.5,D,Raw,Yes,Teen 18-19,18,2001-10-27
1,M,Andrey Stepichev,Андрей Степичев,80.8,,,,,,,,,,,165,180,-195,180,,180,82.5,D,Raw,Yes,Open,31,1988-08-14
1,M,Yuriy Ryabinin,Юрий Рябинин,89,,,,,,,,,,,200,210,-220,210,,210,90,D,Raw,Yes,Open,39,1980-08-03
DQ,M,Vyacheslav Bovinov,Вячеслав Бовинов,87.5,,,,,,,,,,,-195,,,,,,90,D,Raw,Yes,Open,39,1980-06-16
1,M,Aleksey Yakushevich,Алексей Якушевич,99.3,,,,,,,,,,,250,280,292.5,292.5,,292.5,100,D,Raw,Yes,Open,28,1991-07-02
2,M,Yuriy Murin,Юрий Мурин,99,,,,,,,,,,,185,195,-210,195,,195,100,D,Raw,Yes,Open,30,1989-12-06
1,F,Natalya Polyakova,Наталья Полякова,48,,,,,,,,,,,115,125,132.5,132.5,,132.5,48,D,Raw,No,Open,37,1982-07-18
1,M,Nikita Malykh,Никита Малых,47.5,,,,,,,,,,,85,95,105,105,,105,52,D,Raw,No,Teen 13-15,14,2005-08-17
2,M,Nikita Salykin,Никита Салыкин,51.7,,,,,,,,,,,100,-110,-110,100,,100,52,D,Raw,No,Teen 16-17,16,2003-08-24
3,M,Nikita Krasavtsev,Никита Красавцев,46,,,,,,,,,,,82.5,90,-95,90,,90,52,D,Raw,No,Teen 13-15,13,2006-06-27
1,M,Egor Shirshov,Егор Ширшов,55.6,,,,,,,,,,,100,110,120,120,,120,56,D,Raw,No,Teen 13-15,15,2004-08-16
1,M,Dmitriy Cherepanov,Дмитрий Черепанов,58.8,,,,,,,,,,,100,105,115,115,,115,60,D,Raw,No,Teen 13-15,14,2005-06-02
1,M,Kirill Gyunter,Кирилл Гюнтер,63.1,,,,,,,,,,,135,-145,-145,135,,135,67.5,D,Raw,No,Teen 16-17,16,2003-11-21
1,M,Ilya Konev,Илья Конев,71,,,,,,,,,,,150,162.5,170,170,,170,75,D,Raw,No,Teen 16-17,17,2002-08-15
2,M,Vitaliy Romanov,Виталий Романов,72.9,,,,,,,,,,,155,165,170,170,,170,75,D,Raw,No,Teen 16-17,16,2003-10-22
1,M,Dmitriy Nalyotov,Дмитрий Налётов,88.1,,,,,,,,,,,180,-190,-190,180,,180,90,D,Raw,No,Open,38,1982-02-19
1,M,Egor Zaglubotskiy,Егор Заглубоцкий,96.2,,,,,,,,,,,145,-150,,145,,145,100,D,Raw,No,Teen 13-15,14,2005-04-19
1,M,Sergey Moiseev,Сергей Моисеев,99.5,,,,,,,,,,,250,-260,,250,,250,100,D,Raw,No,Open,42,1977-08-24
1,M,Kirill Fadin,Кирилл Фадин,108.3,,,,,,,,,,,200,-210,,200,,200,110,D,Raw,No,Teen 18-19,18,2001-08-09
1,M,Artyom Tropnikov,Артём Тропников,109.4,,,,,,,,,,,305,317.5,332.5,332.5,,332.5,110,D,Raw,No,Open,27,1992-03-01
2,M,Sergey Zelentsov,Сергей Зеленцов,103.1,,,,,,,,,,,270,285,300,300,,300,110,D,Raw,No,Open,49,1970-05-16
3,M,Matvey Terletskiy,Матвей Терлецкий,106.1,,,,,,,,,,,280,,,280,,280,110,D,Raw,No,Open,27,1992-04-22
1,M,Sergey Nikitchuk,Сергей Никитчук,120.9,,,,,,,,,,,290,300,-312.5,300,,300,125,D,Raw,No,Open,40,1979-11-18
