Place,Sex,Name,CyrillicName,BodyweightKg,Deadlift1Kg,Deadlift2Kg,Deadlift3Kg,Best3DeadliftKg,Deadlift4Kg,TotalKg,WeightClassKg,Event,Equipment,Tested,Bench1Kg,Bench2Kg,Bench3Kg,Best3BenchKg,Bench4Kg,Division,Age,BirthDate
1,F,Anna Romanova,Анна Романова,55.9,110,115,117.5,117.5,,117.5,56,D,Raw,No,,,,,,Open,32,1983-10-16
1,F,Nataliya Demkiv,Наталия Демкив,62.5,125,137.5,145,145,,145,67.5,D,Raw,No,,,,,,Open,33,1982-07-26
2,F,Elena Zavyalova,Елена Завьялова,64.7,120,125,127.5,127.5,,127.5,67.5,D,Raw,No,,,,,,Open,24,1992-02-21
3,F,Tatyana Zlydennaya,Татьяна Злыденная,66.5,-100,110,-115,110,,110,67.5,D,Raw,No,,,,,,Open,29,1987-01-28
1,M,Aleksandr Lisnik,Александр Лисник,66.8,180,202.5,-205,202.5,,202.5,67.5,D,Raw,No,,,,,,Juniors 20-23,23,1992-06-30
2,M,Denis Oshkin,Денис Ошкин,66.3,165,175,185,185,,185,67.5,D,Raw,No,,,,,,Juniors 20-23,20,1996-02-29
3,M,Mikhail Baranov,Михаил Баранов,66.9,-170,170,182.5,182.5,,182.5,67.5,D,Raw,No,,,,,,Juniors 20-23,22,1994-01-04
1,M,Pavel Sheff,Павел Шефф,73.8,180,190,200,200,,200,75,D,Raw,No,,,,,,Juniors 20-23,22,1993-07-09
1,M,Andrey Smetanyuk,Андрей Сметанюк,74.7,215,-222.5,-222.5,215,,215,75,D,Raw,No,,,,,,Open,35,1981-05-06
1,M,Aleksey Egorov,Алексей Егоров,80,190,197.5,-202.5,197.5,,197.5,82.5,D,Raw,No,,,,,,Juniors 20-23,23,1992-07-03
1,M,Aleksandr Talerov,Александр Талеров,81.2,225,-235,-237.5,225,,225,82.5,D,Raw,No,,,,,,Open,32,1983-06-08
1,M,Anton Gryazev,Антон Грязев,88.4,210,225,-242.5,225,,225,90,D,Raw,No,,,,,,Open,28,1987-06-05
2,M,Stanislav Belov,Станислав Белов,87.9,195,207.5,220,220,,220,90,D,Raw,No,,,,,,Open,25,1990-11-11
3,M,Andrey Pavlyuchenko,Андрей Павлюченко,86.1,200,215,-225,215,,215,90,D,Raw,No,,,,,,Open,26,1990-04-20
1,M,Pavel Kobelev,Павел Кобелев,92,280,300,-320,300,,300,100,D,Raw,No,,,,,,Open,26,1989-08-04
2,M,Sergey Kholyapin,Сергей Холяпин,98.4,235,,,235,,235,100,D,Raw,No,,,,,,Open,41,1975-02-14
3,M,Anton Rusalenko,Антон Русаленко,100,180,202.5,232.5,232.5,,232.5,100,D,Raw,No,,,,,,Open,28,1987-10-22
4,M,Anatoliy Kovalev,Анатолий Ковалев,93.1,210,230,-245,230,,230,100,D,Raw,No,,,,,,Open,24,1991-08-01
DQ,M,Pavel Beketov,Павел Бекетов,96.8,-210,,,,,,100,D,Raw,No,,,,,,Open,27,1989-05-13
DQ,M,Aleksey Krylov,Алексей Крылов,99,-190,,,,,,100,D,Raw,No,,,,,,Open,28,1988-02-21
1,M,Sergey Gusev,Сергей Гусев,109.6,280,-290,-292.5,280,,280,110,D,Raw,No,,,,,,Open,29,1987-03-18
2,M,Aleksey Vasilev,Алексей Васильев,103.3,215,-220,,215,,215,110,D,Raw,No,,,,,,Open,45,1971-05-07
3,M,Samvel Shushanyan,Самвел Шушанян,109.6,200,215,-222.5,215,,215,110,D,Raw,No,,,,,,Open,34,1982-04-16
4,M,Aleksey Shmarykin,Алексей Шмарыкин,104.2,-165,170,175,175,,175,110,D,Raw,No,,,,,,Open,36,1979-06-14
1,M,Aleksey Vasilev,Алексей Васильев,103.3,215,-220,,215,,215,110,D,Raw,No,,,,,,Masters 45-49,45,1971-05-07
1,M,Aleksandr Luzanov,Александр Лузанов,121.3,240,250,260,260,,260,125,D,Raw,No,,,,,,Juniors 20-23,22,1993-09-30
1,M,Igor Smirnov,Игорь Смирнов,112.7,230,240,-250,240,,240,125,D,Raw,No,,,,,,Masters 50-54,51,1965-04-21
1,M,Vyacheslav Shchigelskiy,Вячеслав Щигельский,137.6,300,310,-325,310,,310,140,D,Raw,No,,,,,,Open,26,1989-09-04
1,M,Aleksey Furmanov,Алексей Фурманов,89.1,,,,,,242.5,90,B,Multi-ply,No,-230,235,242.5,242.5,,Open,28,1987-06-12
1,F,Tatyana Ivanova,Татьяна Иванова,55.7,,,,,,52.5,56,B,Raw,No,52.5,-57.5,-57.5,52.5,,Juniors 20-23,23,1993-05-25
1,F,Viktoriya Ershova,Виктория Ершова,55.4,,,,,,65,56,B,Raw,No,60,-65,65,65,,Open,35,1980-08-21
DQ,F,Mariya Zdirok,Мария Здирок,59,,,,,,,60,B,Raw,No,-52.5,-55,-55,,,Juniors 20-23,22,1994-03-16
1,F,Olga Ulyanovich,Ольга Ульянович,60,,,,,,50,60,B,Raw,No,45,-50,50,50,,Open,32,1984-02-24
1,F,Svetlana Vishnevskaya,Светлана Вишневская,64.8,,,,,,75,67.5,B,Raw,No,70,75,-77.5,75,,Open,24,1992-01-13
2,F,Nataliya Demkiv,Наталия Демкив,62.5,,,,,,72.5,67.5,B,Raw,No,-72.5,72.5,-77.5,72.5,,Open,33,1982-07-26
1,F,Elina Chernina,Элина Чернина,73.1,,,,,,82.5,75,B,Raw,No,72.5,77.5,82.5,82.5,,Open,28,1987-06-10
1,M,Ivan Nikitinskiy,Иван Никитинский,39.9,,,,,,26,52,B,Raw,No,22.5,25,26,26,27.5,Youth,11,2004-07-07
1,M,Nikita Suetin,Никита Суетин,56.7,,,,,,75,60,B,Raw,No,70,-75,75,75,,Teen 13-15,14,2001-07-09
1,M,Nikiti Tomilov,Никити Томилов,64,,,,,,75,67.5,B,Raw,No,70,75,-80,75,,Teen 16-17,16,1999-11-16
1,M,Aleksandr Lisnik,Александр Лисник,66.8,,,,,,115,67.5,B,Raw,No,105,110,115,115,,Juniors 20-23,23,1992-06-30
1,M,Pavel Sheff,Павел Шефф,73.8,,,,,,137.5,75,B,Raw,No,120,127.5,137.5,137.5,,Juniors 20-23,22,1993-07-09
2,M,Nikita Pridannikov,Никита Приданников,74.1,,,,,,137.5,75,B,Raw,No,130,135,137.5,137.5,,Juniors 20-23,22,1993-06-18
3,M,Vladimir Buchin,Владимир Бучин,73.3,,,,,,120,75,B,Raw,No,110,120,-125,120,,Juniors 20-23,22,1993-11-12
1,M,Roman Grinyov,Роман Гринёв,71.1,,,,,,142.5,75,B,Raw,No,135,140,142.5,142.5,,Open,32,1984-04-11
1,M,Aleksey Egorov,Алексей Егоров,78.9,,,,,,147.5,82.5,B,Raw,No,140,-147.5,147.5,147.5,,Juniors 20-23,23,1992-07-03
2,M,Evgeniy Khorcov,Евгений Хорсов,80.3,,,,,,147.5,82.5,B,Raw,No,135,142.5,147.5,147.5,,Juniors 20-23,22,1994-04-27
1,M,Artyom Khabarov,Артём Хабаров,80.7,,,,,,140,82.5,B,Raw,No,-140,140,-150,140,,Open,31,1985-02-08
2,M,Sergey Eganov,Сергей Еганов,80.4,,,,,,125,82.5,B,Raw,No,-125,-125,125,125,,Open,31,1984-08-28
3,M,Dmitriy Klyukvin,Дмитрий Клюквин,81.4,,,,,,120,82.5,B,Raw,No,110,115,120,120,,Open,38,1977-06-08
4,M,Eduard Komarov,Эдуард Комаров,81.3,,,,,,110,82.5,B,Raw,No,110,-130,-130,110,,Open,24,1991-10-28
1,M,Andrey Tuchin,Андрей Тучин,82.5,,,,,,127.5,82.5,B,Raw,No,122.5,-127.5,127.5,127.5,,Masters 40-44,42,1974-02-05
1,M,Vasiliy Karpov #2,Василий Карпов,81.8,,,,,,142.5,82.5,B,Raw,No,-130,130,142.5,142.5,,Masters 50-54,52,1964-02-07
1,M,Aleksandr Mikhaylov,Александр Михайлов,81.3,,,,,,85,82.5,B,Raw,No,80,85,-90,85,,Masters 55-59,57,1958-12-09
1,M,Timofey Savchenko,Тимофей Савченко,88.8,,,,,,162.5,90,B,Raw,No,152.5,157.5,162.5,162.5,,Juniors 20-23,22,1993-10-13
2,M,Mikhail Shelkov,Михаил Шелков,86.6,,,,,,140,90,B,Raw,No,130,140,-150,140,,Juniors 20-23,23,1992-11-29
3,M,Aleksey Simoshenko,Алексей Симошенко,86.7,,,,,,127.5,90,B,Raw,No,115,120,127.5,127.5,,Juniors 20-23,22,1994-05-16
1,M,Sergey Kiselyov,Сергей Киселёв,87.7,,,,,,165,90,B,Raw,No,152.5,165,-175,165,,Open,31,1985-05-27
2,M,Stanislav Kandaurov,Станислав Кандауров,86.8,,,,,,160,90,B,Raw,No,152.5,160,-165,160,,Open,26,1990-05-26
3,M,Vladimir Karandashev,Владимир Карандашев,86.9,,,,,,150,90,B,Raw,No,145,150,-152.5,150,,Open,44,1972-03-12
4,M,Viktor Matveev,Виктор Матвеев,87,,,,,,125,90,B,Raw,No,120,125,-130,125,,Open,28,1987-08-02
5,M,Mikhail Pedan,Михаил Педан,89.3,,,,,,115,90,B,Raw,No,100,107.5,115,115,,Open,27,1989-05-08
1,M,Vladimir Karandashev,Владимир Карандашев,86.9,,,,,,150,90,B,Raw,No,145,150,-152.5,150,,Masters 40-44,44,1972-03-12
1,M,Yuriy Dyachkov,Юрий Дьячков,91.3,,,,,,95,100,B,Raw,No,90,95,-100,95,,Teen 16-17,16,1999-10-03
1,M,Bogdan Bagautdinov,Богдан Багаутдинов,96.9,,,,,,200,100,B,Raw,No,185,195,200,200,,Juniors 20-23,20,1995-07-28
2,M,Anatoliy Rybakov,Анатолий Рыбаков,97.9,,,,,,162.5,100,B,Raw,No,140,150,162.5,162.5,,Juniors 20-23,20,1996-03-17
3,M,Vladislav Nikipelov,Владислав Никипелов,95.7,,,,,,137.5,100,B,Raw,No,125,132.5,137.5,137.5,,Juniors 20-23,21,1994-07-27
1,M,Ivan Solntsev,Иван Солнцев,99.7,,,,,,192.5,100,B,Raw,No,185,192.5,-197.5,192.5,,Open,42,1974-03-25
2,M,Andrey Volkov,Андрей Волков,92.3,,,,,,190,100,B,Raw,No,180,190,-195,190,,Open,40,1975-09-29
3,M,Mikhail Sidko,Михаил Сидько,99.6,,,,,,180,100,B,Raw,No,170,175,180,180,,Open,31,1984-08-29
4,M,Vitaliy Lilimberg,Виталий Лилимберг,97.3,,,,,,150,100,B,Raw,No,150,-152.5,,150,,Open,25,1991-03-04
5,M,Vadim Vyatkin,Вадим Вяткин,97.1,,,,,,130,100,B,Raw,No,120,127.5,130,130,,Open,27,1989-04-09
1,M,Ivan Solntsev,Иван Солнцев,99.7,,,,,,192.5,100,B,Raw,No,185,192.5,-197.5,192.5,,Masters 40-44,42,1974-03-25
2,M,Andrey Volkov,Андрей Волков,92.3,,,,,,190,100,B,Raw,No,180,190,-195,190,,Masters 40-44,40,1975-09-29
1,M,Vasiliy Markitantov,Василий Маркитантов,104.8,,,,,,205,110,B,Raw,No,195,200,205,205,,Open,36,1980-02-21
2,M,Yan Timofeev,Ян Тимофеев,107.5,,,,,,182.5,110,B,Raw,No,170,177.5,182.5,182.5,,Open,24,1992-02-14
3,M,Ildar Biryukov,Ильдар Бирюков,107.4,,,,,,177.5,110,B,Raw,No,-170,172.5,177.5,177.5,,Open,33,1982-11-24
4,M,Ivan Anikanov,Иван Аниканов,103.8,,,,,,175,110,B,Raw,No,157.5,167.5,175,175,,Open,33,1982-07-23
1,M,Andrey Fyodorov,Андрей Фёдоров,103.1,,,,,,142.5,110,B,Raw,No,-142.5,142.5,-150,142.5,,Masters 50-54,50,1965-10-16
1,M,Aleksandr Pedchenko,Александр Педченко,113,,,,,,227.5,125,B,Raw,No,215,222.5,227.5,227.5,,Juniors 20-23,23,1993-05-20
1,M,Anatoliy Zolotov,Анатолий Золотов,120.7,,,,,,202.5,125,B,Raw,No,190,-202.5,202.5,202.5,,Open,44,1972-04-13
2,M,Vyacheslav Pilikov,Вячеслав Пиликов,119.2,,,,,,200,125,B,Raw,No,-200,200,-205,200,,Open,35,1980-10-28
3,M,Safaly Mamedov,Сафалы Мамедов,115.3,,,,,,150,125,B,Raw,No,-140,150,-160,150,,Open,26,1989-12-04
1,M,Anatoliy Zolotov,Анатолий Золотов,120.7,,,,,,202.5,125,B,Raw,No,190,-202.5,202.5,202.5,,Masters 40-44,44,1972-04-13
DQ,M,Oleg Krylov,Олег Крылов,120.7,,,,,,,125,B,Raw,No,-145,-145,,,,Masters 40-44,42,1973-11-04
1,M,Vyacheslav Shchigelskiy,Вячеслав Щигельский,137.6,,,,,,207.5,140,B,Raw,No,190,200,207.5,207.5,,Open,26,1989-09-04
2,M,Maksim Bezinskikh,Максим Безинских,130.9,,,,,,180,140,B,Raw,No,-180,-180,180,180,,Open,30,1986-05-18
1,M,Vitaliy Lilimberg,Виталий Лилимберг,97.2,,,,,,162.5,100,B,Multi-ply,No,150,155,162.5,162.5,,Open,25,1991-03-04
