Place,Name,BodyweightKg,Squat1Kg,Squat2Kg,Squat3Kg,Best3SquatKg,Bench1Kg,Bench2Kg,Bench3Kg,Best3BenchKg,Bench4Kg,Deadlift1Kg,Deadlift2Kg,Deadlift3Kg,Best3DeadliftKg,Deadlift4Kg,TotalKg,WeightClassKg,Sex,CyrillicName,BirthYear,Event,Equipment,Division
1,Mykola Shkurynskyy,50.25,117.5,-122.5,122.5,122.5,67.5,-72.5,72.5,72.5,,155,160,-165,160,,355,52,M,Микола Шкуринський,1976,SBD,Single-ply,Open
2,Vitaliy Gurtovoy,50.8,90,-100,100,100,70,-75,-75,70,,125,137.5,145,145,,315,52,M,Віталій Гуртовой,1974,SBD,Single-ply,Open
3,Stepan Ovcharenko,51.75,100,105,110,110,55,60,67.5,67.5,,110,-115,115,115,,292.5,52,M,Степан Овчаренко,1976,SBD,Single-ply,Open
4,Albert Ilyin,46.5,65,70,75,75,-42.5,42.5,-52.5,42.5,,90,95,100,100,,217.5,52,M,Альберт Ільїн,1978,SBD,Single-ply,Open
1,Sergiy Vatyuk,55.5,-160,160,-170,160,115,-125,125,125,,180,190,-205,190,,475,56,M,Сергій Ватюк,1962,SBD,Single-ply,Open
2,Oleksiy Balashov,56,-115,115,120,120,75,80,-85,80,,120,130,135,135,,335,56,M,Олексій Балашов,1975,SBD,Single-ply,Open
1,Vitaliy Arsenyev,58.5,130,140,145,145,100,105,-110,105,,160,170,,170,,420,60,M,Віталій Арсеньєв,1963,SBD,Single-ply,Open
DQ,Oleksiy Markin,59.3,-145,-145,-145,,,,,,,,,,,,,60,M,Олексій Маркін,1974,SBD,Single-ply,Open
1,Mykola Podsosonnyy,66,180,190,-197.5,190,122.5,127.5,,127.5,,252.5,260,265,265,266,582.5,67.5,M,Микола Подсосонний,1952,SBD,Single-ply,Open
2,Roman Zuzuk,67.1,190,200,210,210,135,140,142.5,142.5,,210,230,-232.5,230,,582.5,67.5,M,Роман Зузук,1971,SBD,Single-ply,Open
3,Volodymyr Kovalenko,67.5,215,225,-232.5,225,-127.5,127.5,132.5,132.5,,212.5,220,-227.5,220,,577.5,67.5,M,Володимир Коваленко,1965,SBD,Single-ply,Open
4,Olexandr Nesterenko,67.25,220,-232.5,232.5,232.5,-110,110,-120,110,,220,-235,-235,220,,562.5,67.5,M,Олександр Нестеренко,1953,SBD,Single-ply,Open
5,Viktor Fomenko,66.8,167.5,180,185,185,122.5,-130,130,130,,230,,-270,230,,545,67.5,M,Виктор Фоменко,1968,SBD,Single-ply,Open
6,Viktor Khurudzhi,67.05,185,-195,195,195,105,-115,115,115,,185,190,-195,190,,500,67.5,M,Віктор Хуруджи,1975,SBD,Single-ply,Open
7,Mykola Ogly,67.45,170,-180,180,180,-105,-110,110,110,,195,205,-212.5,205,,495,67.5,M,Микола Огли,1949,SBD,Single-ply,Open
8,Anatoliy Parkhomenko,65.55,-165,165,-170,165,120,-127.5,-127.5,120,,180,190,-200,190,,475,67.5,M,Анатолій Пархоменко,1941,SBD,Single-ply,Open
9,Mykhailo Rozhenko,66.9,165,175,-185,175,-105,105,-110,105,,190,-197.5,,190,,470,67.5,M,Михайло Роженко,1974,SBD,Single-ply,Open
10,Oleg Molokoedov,66.8,150,162.5,165,165,120,-127.5,-127.5,120,,160,170,180,180,,465,67.5,M,Олег Молокоєдов,1970,SBD,Single-ply,Open
11,Volodymyr Ardelyan,67,150,-165,165,165,110,-115,120,120,,160,-175,175,175,,460,67.5,M,Володимир Арделян,1968,SBD,Single-ply,Open
DQ,Olexandr Chernyshov,67.25,210,-220,-220,210,-145,-145,-145,,,,,,,,,67.5,M,Олександр Чернишов,1966,SBD,Single-ply,Open
DQ,Yan Bobrik,66.7,-130,-130,130,130,-105,,-105,,,,,,,,,67.5,M,Ян Бобрик,1979,SBD,Single-ply,Open
1,Yuriy Yurtaev,75,-220,220,230,230,150,160,-165,160,,250,270,-282.5,270,,660,75,M,Юрій Юртаєв,1961,SBD,Single-ply,Open
2,Dmytro Chikin,74.85,210,215,-217.5,215,120,125,,125,,220,230,240,240,,580,75,M,Дмитро Чикін,1966,SBD,Single-ply,Open
3,Leonid Spivak,75,200,210,-215,210,130,-140,-140,130,,230,240,,240,,580,75,M,Леонід Співак,1966,SBD,Single-ply,Open
4,Sergiy Teshu,73.65,200,210,-215,210,105,115,117.5,117.5,,190,200,,200,,527.5,75,M,Сергій Тешу,1976,SBD,Single-ply,Open
5,Valeriy Nemyy,73.95,170,180,185,185,110,115,-117.5,115,,210,-230,-230,210,,510,75,M,Валерій Нємий,1966,SBD,Single-ply,Open
6,Andriy Sidorenko,71.8,160,170,-175,170,145,-155.5,-155.5,145,,170,180,190,190,,505,75,M,Андрій Сидоренко,1973,SBD,Single-ply,Open
7,Sergiy Kary,72.45,-165,165,170,170,100,110,115,115,,190,200,-210,200,,485,75,M,Сергій Карий,1973,SBD,Single-ply,Open
8,Mykola Palamarchuk,72.1,150,160,-170,160,110,-115,115,115,,160,170,180,180,,455,75,M,Микола Паламарчук,1949,SBD,Single-ply,Open
DQ,Mykola Geychenko,74,-170,-170,-170,,,,,,,,,,,,,75,M,Микола Гейченко,1960,SBD,Single-ply,Open
DQ,Anatoliy Kots,74.35,-185,-185,-185,,,,,,,,,,,,,75,M,Анатолій Коц,1973,SBD,Single-ply,Open
1,Volodymyr Ukhach,82.45,245,252.5,,252.5,180,190,200,200,,240,247.5,252.5,252.5,,705,82.5,M,Володимир Ухач,1960,SBD,Single-ply,Open
2,Volodymyr Makhnyuk,81.7,240,250,255,255,165,-170,-172.5,165,,260,-275,-285,260,,680,82.5,M,Володимир Махнюк,1957,SBD,Single-ply,Open
3,Viktor Bettyar,82.35,240,250,,250,-170,,170,170,,250,-260,,250,,670,82.5,M,Віктор Беттяр,1957,SBD,Single-ply,Open
4,Mykola Korniyenko,81.85,225,-230,230,230,165,-170,170,170,,240,260,,260,,660,82.5,M,Микола Корнієнко,1966,SBD,Single-ply,Open
5,Mykhailo Solomin,82.3,240,252.5,257.5,257.5,-150,,155,155,,240,-247.5,-247.5,240,,652.5,82.5,M,Михайло Соломін,1971,SBD,Single-ply,Open
6,Vasyl' Strelbytskyy,81.65,220,-230,230,230,155,-160,-160,155,,255,-265,265,265,,650,82.5,M,Василь Стрельбицький,1962,SBD,Single-ply,Open
7,Oleg Zbyshevskyy,81,225,-230,230,230,160,165,-170,165,,240,-265,-265,240,,635,82.5,M,Олег Збишевський,1965,SBD,Single-ply,Open
8,Volodymyr Leshchenko,81.3,235,-240.5,-240.5,235,150,-155,,150,,-225,225,,225,,610,82.5,M,Володимир Лещенко,1946,SBD,Single-ply,Open
9,Dmytro Solodkyy,80.5,170,180,-185,180,145,150,-155,150,,200,220,-230,220,,550,82.5,M,Дмитро Солодкий,1971,SBD,Single-ply,Open
10,Vladimir Naleykin,82.35,180,190,-195,190,-120,120,-125,120,,210,220,,220,,530,82.5,M,Володимир Налейкін,1963,SBD,Single-ply,Open
DQ,Igor Musienko,80.3,-190,190,-200,190,-110,-110,-110,,,,,,,,,82.5,M,Ігор Мусієнко,1963,SBD,Single-ply,Open
1,Gennadiy Vorobyev,89.3,280,295,,295,190,-195,,190,,325,340,,340,,825,90,M,Геннадій Воробйов,1961,SBD,Single-ply,Open
2,Yuriy Molokoyedov,88.7,215,-225,225,225,170,180,190,190,,210,225,240,240,,655,90,M,Юрій Молокоєдов,1959,SBD,Single-ply,Open
3,Oleksiy Solovyov,87.4,210,-220,225,225,150,-157.5,-157.5,150,,210,220,225,225,,600,90,M,Олексій Соловйов,1975,SBD,Single-ply,Open
4,Igor Ulyatovsky,88.85,200,-220,-220,200,150,157.5,167.5,167.5,,200,230,-240,230,,597.5,90,M,Ігор Улятовський,1969,SBD,Single-ply,Open
5,Vyacheslav Orykhovskyy,89.5,180,190,200,200,140,-150,-150,140,,230,245,-262.5,245,,585,90,M,В'ячеслав Ориховський,1961,SBD,Single-ply,Open
6,Igor Lytvynov,89.3,180,-200,210,210,120,130,135,135,,220,-235,-240,220,,565,90,M,Ігор Литвинов,1969,SBD,Single-ply,Open
7,Sergiy Lykov,89.5,-160,160,,160,100,-110,,100,,180,190,-200,190,,450,90,M,Сергій Ликов,1950,SBD,Single-ply,Open
DQ,Andriy Kalabanka,85,-200,-200,-200,,,,,,,,,,,,,90,M,Андрій Калабанька,1970,SBD,Single-ply,Open
DQ,Vasyl' Melnychenko,84.8,-200,-200,-200,,,,,,,,,,,,,90,M,Василь Мельниченко,1969,SBD,Single-ply,Open
DQ,Yuriy Ponomarenko,89.35,-235,-235,-235,,,,,,,,,,,,,90,M,Юрій Пономаренко,1960,SBD,Single-ply,Open
1,Vyacheslav Zhukov #1,100,270,-290,300,300,-190,-190,190,190,,270,290,-310,290,,780,100,M,В'ячеслав Жуков,1963,SBD,Single-ply,Open
2,Anatoliy Emelyanovich,93.8,270,-285,-285,270,170,180,-185,180,,280,290,-300,290,,740,100,M,Анатолій Ємель'янович,1960,SBD,Single-ply,Open
4,Viktor Zubkov,94,240,-245,,240,195,200,-205,200,,240,250,-255,250,,690,100,M,Віктор Зубков,1957,SBD,Single-ply,Open
5,Viktor Karpenko,98.9,260,-270,-270,260,110,,,110,,280,-290,,280,,650,100,M,Віктор Карпенко,1960,SBD,Single-ply,Open
3,Yuriy Simonenko,96,210,-220,220,220,140,-150,150,150,,210,230,240,240,,610,100,M,Юрій Симоненко,1949,SBD,Single-ply,Open
6,Sergiy Subbota,99,205,215,225,225,120,130,-140,130,,210,220,-230,220,,575,100,M,Сергій Суббота,1962,SBD,Single-ply,Open
7,Vitaliy Zhukov,95.8,-200,200,-210,200,130,-140,,130,,230,240,,240,,570,100,M,Виталий Жуков,1974,SBD,Single-ply,Open
DQ,Dmytro Belyy,96,210,-220,-220,210,-145,-145,-145,,,,,,,,,100,M,Дмитро Белий,1971,SBD,Single-ply,Open
DQ,Oleg Koroliov,96.6,250,260,270,270,155,165.5,170,170,-175,-250,-250,-252.5,,,,100,M,Олег Корольов,1971,SBD,Single-ply,Open
DQ,Mykhailo Kovtunenko,97.8,240,250,260,260,-150,150,-155,150,,-285,-285,,,,,100,M,Михайло Ковтуненко,1963,SBD,Single-ply,Open
1,Anatoliy Koshelap,107.5,260,265,-270,265,200,210,-215.5,210,,-280,280,290,290,,765,110,M,Анатолій Кошелап,1955,SBD,Single-ply,Open
2,Oleksandr Prozhoga,108.4,300,-315,-320,300,-160,-160,160,160,,270,-280,280,280,,740,110,M,Олександр Прожога,1965,SBD,Single-ply,Open
3,Viktor Pirogov,105.1,-260,-260,260,260,160,170,-180,170,,260,270,285,285,,715,110,M,Віктор Пирогов,1956,SBD,Single-ply,Open
4,Andriy Budnyk,107,240,247.5,-250,247.5,160,170,172.5,172.5,,240,250,,250,,670,110,M,Андрій Будник,1971,SBD,Single-ply,Open
DQ,Oleg Pidoprigora,106,200,-205,-205,200,-140,-140,-140,,,,,,,,,110,M,Олег Пидопригора,1966,SBD,Single-ply,Open
DQ,Aleksandr Levchuk,109,210,-215,-215,210,-140,-140,-140,,,,,,,,,110,M,Александр Левчук,1965,SBD,Single-ply,Open
DQ,Igor Antypenko,103.4,220,225,230,230,150,155,-160,155,,-260,-260,,,,,110,M,Ігор Антипенко,1968,SBD,Single-ply,Open
1,Viktor Naleykin,115.15,330,345.5,350,350,180,190,-195,190,,330,-351,,330,,870,125,M,Віктор Налейкін,1953,SBD,Single-ply,Open
2,Valeriy Dergach,119.5,280,-290,-295,280,185,195,-200,195,,240,260,-280,260,,735,125,M,Валерій Дергач,1956,SBD,Single-ply,Open
1,Yuriy Zabolotnyy,138,290,310,-330,310,190,200,-205,200,,290,-300,300,300,,810,125+,M,Юрій Заболотний,1958,SBD,Single-ply,Open
2,Andriy Radchenko,127,245,-265,270,270,-140,140,,140,,270,280,-285,280,,690,125+,M,Андрій Радченко,1973,SBD,Single-ply,Open
3,Vasyl' Orobets,130.5,225,235,242.5,242.5,140,150,-160,150,,235,245,250,250,,642.5,125+,M,Василь Оробець,1966,SBD,Single-ply,Open
1,Tetyana Yaskiv,47.7,85,90,-95,90,40,42.5,45,45,,100,107.5,115,115,,250,48,F,Тетяна Яськів,1967,SBD,Single-ply,Open
2,Inna Ivleva,47.5,-80,85,87.5,87.5,40,45,-47.5,45,,102.5,110,115,115,,247.5,48,F,Інна Івлєва,1976,SBD,Single-ply,Open
3,Viktoria Shapoval,48,-80,80,-87.5,80,40,-45,-50,40,,95,-100,,95,,215,48,F,Вікторія Шаповал,1973,SBD,Single-ply,Open
4,Lyudmyla Povolotska,48,-80,80,-87.5,80,40,-45,-45,40,,90,-100,-100,90,,210,48,F,Людмила Поволоцька,1952,SBD,Single-ply,Open
1,Svitlana Poplavska,51.7,102.5,-110,-112.5,102.5,-55,55,57.5,57.5,,115,-120,120,120,,280,52,F,Світлана Поплавська,1966,SBD,Single-ply,Open
2,Ludmyla Starova,51.6,-87.5,-87.5,87.5,87.5,50,55,-57.5,55,,122.5,-132.5,-132.5,122.5,,265,52,F,Людмила Старова,1970,SBD,Single-ply,Open
3,Kateryna Pirgat,51.5,80,-85,-87.5,80,-40,40,-45,40,,-105,115,120,120,,240,52,F,Катерина Піргат,1974,SBD,Single-ply,Open
DQ,Larysa Lebedeva,51.5,62.5,-67.5,67.5,67.5,-50,50,-57.5,50,,-60,,,,,,52,F,Лариса Лебедєва,1956,SBD,Single-ply,Open
DQ,Natalya Dmytrieva,51.9,65,-70,-72.5,65,-40,-40,-40,,,,,,,,,52,F,Наталя Дмитрієва,1971,SBD,Single-ply,Open
DQ,Iryna Mykhaldyko,52,50,60,-65,60,-50,-50,-50,,,,,,,,,52,F,Ірина Михалдико,1969,SBD,Single-ply,Open
DQ,Valentina Pavlenko,52,50,60,-67.5,60,-55,-55,-55,,,,,,,,,52,F,Валентина Павленко,1958,SBD,Single-ply,Open
1,Larysa Ivanova,56,105,112.5,-115,112.5,55,60.5,62.5,62.5,,107.5,112.5,117.5,117.5,,292.5,56,F,Лариса Іванова,1963,SBD,Single-ply,Open
2,Lyubov Banova,54.7,65,-70,-70,65,-35,-37.5,37.5,37.5,,75,82.5,90,90,,192.5,56,F,Любов Банова,1971,SBD,Single-ply,Open
DQ,Olena Arteeva,52.05,-82.5,-87.5,-87.5,,,,,,,,,,,,,56,F,Олена Артєєва,1972,SBD,Single-ply,Open
1,Yaroslava Furduy,60,-105,105,-110,105,60,65,-70,65,,140,160,-165,160,,330,60,F,Ярослава Фурдуй,1971,SBD,Single-ply,Open
2,Iryna Dubinina,59.9,112.5,-120,120,120,55,-60,62.5,62.5,,135,145,-150,145,,327.5,60,F,Ірина Дубініна,1966,SBD,Single-ply,Open
3,Kseniya Aloeva,59.6,-100,100,107.5,107.5,60,62.5,-65,62.5,,130,140,,140,,310,60,F,Ксенія Алоєва,1969,SBD,Single-ply,Open
4,Lidiya Mashtal',59.5,65,70,-75,70,45,50,-52.5,50,,90,100,110,110,,230,60,F,Лідія Машталь,1957,SBD,Single-ply,Open
1,Olena Zhukova,67.3,130,150,-160,150,62.5,67.5,70,70,,170,-180,-180,170,,390,67.5,F,Олена Жукова,1972,SBD,Single-ply,Open
2,Lyubov Shulga,67,85,92.5,97.5,97.5,52.5,57.5,-60,57.5,,105,115,122.5,122.5,,277.5,67.5,F,Любов Шульга,1967,SBD,Single-ply,Open
3,Anna Turanska,64.2,85,-90,95,95,47.5,52.5,-55,52.5,,100,107.5,120,120,,267.5,67.5,F,Анна Туранська,1972,SBD,Single-ply,Open
4,Natalya Chernadchuk,66.2,90,-97.5,97.5,97.5,50,57.5,62.5,62.5,,90,100,107.5,107.5,,267.5,67.5,F,Наталя Чернадчук,1976,SBD,Single-ply,Open
5,Viktoriya Boyko,61.3,-75,77.5,82.5,82.5,37.5,-40,40,40,,115,-120,,115,,237.5,67.5,F,Вікторія Бойко,1969,SBD,Single-ply,Open
1,Inna Orobets,74.5,140,147.5,-162.5,147.5,87.5,92.5,-95,92.5,,140,150,-160,150,,390,75,F,Інна Оробець,1971,SBD,Single-ply,Open
2,Anna Ganenko,74.2,-97.5,97.5,105,105,57.5,-62.5,-62.5,57.5,,112.5,120,125,125,,287.5,75,F,Анна Ганенко,1975,SBD,Single-ply,Open
DQ,Lyudmila Nazarchuk,71.3,80,-90,90,90,45,-50,50,50,,-110,-110,-110,,,,75,F,Людмила Назарчук,1970,SBD,Single-ply,Open
DQ,Valentyna Torokhtiy,81.7,-105,110,-115,110,65,-67.5,67.5,67.5,,-135,-135,,,,,82.5,F,Валентина Торохтій,1971,SBD,Single-ply,Open
1,Tetyana Silchenko,94.2,50,60,,60,-50,-60,60,60,,110,-120,130.5,130.5,,250.5,90+,F,Тетяна Сильченко,1961,SBD,Single-ply,Open
